^C:\TESSERACT\TESS305\BUILD2\CMAKEFILES\3.8.0-RC2\COMPILERIDCXX\CMAKECXXCOMPILERID.CPP
C:\WINDOWS\GLOBALIZATION\SORTING\SORTDEFAULT.NLS
C:\PROGRAM FILES (X86)\MICROSOFT VISUAL STUDIO 14.0\VC\BIN\X86_AMD64\1042\CLUI.DLL
C:\WINDOWS\SYSTEM32\TZRES.DLL
