^C:\TESSERACT\TESS305\.CPPAN\CMAKELISTS.TXT
C:\USERS\ABRAIN\.CPPAN\STORAGE\ETC\STATIC\HEADER.CMAKE
C:\USERS\ABRAIN\.CPPAN\STORAGE\ETC\STATIC\FUNCTIONS.CMAKE
C:\TESSERACT\TESS305\.CPPAN\HELPERS.CMAKE
C:\PROGRAM FILES\CMAKE\SHARE\CMAKE-3.8\MODULES\PROCESSORCOUNT.CMAKE
C:\PROGRAM FILES\CMAKE\SHARE\CMAKE-3.8\MODULES\CHECKCXXSYMBOLEXISTS.CMAKE
C:\PROGRAM FILES\CMAKE\SHARE\CMAKE-3.8\MODULES\CHECKSYMBOLEXISTS.CMAKE
C:\PROGRAM FILES\CMAKE\SHARE\CMAKE-3.8\MODULES\CHECKFUNCTIONEXISTS.CMAKE
C:\PROGRAM FILES\CMAKE\SHARE\CMAKE-3.8\MODULES\CHECKINCLUDEFILES.CMAKE
C:\PROGRAM FILES\CMAKE\SHARE\CMAKE-3.8\MODULES\CHECKINCLUDEFILE.CMAKE
C:\PROGRAM FILES\CMAKE\SHARE\CMAKE-3.8\MODULES\CHECKINCLUDEFILECXX.CMAKE
C:\PROGRAM FILES\CMAKE\SHARE\CMAKE-3.8\MODULES\CHECKLIBRARYEXISTS.CMAKE
C:\PROGRAM FILES\CMAKE\SHARE\CMAKE-3.8\MODULES\CHECKTYPESIZE.CMAKE
C:\PROGRAM FILES\CMAKE\SHARE\CMAKE-3.8\MODULES\CHECKCSOURCECOMPILES.CMAKE
C:\PROGRAM FILES\CMAKE\SHARE\CMAKE-3.8\MODULES\CHECKCSOURCERUNS.CMAKE
C:\PROGRAM FILES\CMAKE\SHARE\CMAKE-3.8\MODULES\CHECKCXXSOURCECOMPILES.CMAKE
C:\PROGRAM FILES\CMAKE\SHARE\CMAKE-3.8\MODULES\CHECKCXXSOURCERUNS.CMAKE
C:\PROGRAM FILES\CMAKE\SHARE\CMAKE-3.8\MODULES\CHECKSTRUCTHASMEMBER.CMAKE
C:\PROGRAM FILES\CMAKE\SHARE\CMAKE-3.8\MODULES\GENERATEEXPORTHEADER.CMAKE
C:\PROGRAM FILES\CMAKE\SHARE\CMAKE-3.8\MODULES\CHECKCXXCOMPILERFLAG.CMAKE
C:\PROGRAM FILES\CMAKE\SHARE\CMAKE-3.8\MODULES\CMAKECHECKCOMPILERFLAGCOMMONPATTERNS.CMAKE
C:\PROGRAM FILES\CMAKE\SHARE\CMAKE-3.8\MODULES\TESTBIGENDIAN.CMAKE
C:\PROGRAM FILES\CMAKE\SHARE\CMAKE-3.8\MODULES\CHECKINCLUDEFILE.C.IN
C:\PROGRAM FILES\CMAKE\SHARE\CMAKE-3.8\MODULES\CHECKTYPESIZE.C.IN
C:\TESSERACT\TESS305\BUILD2\CMAKEFILES\CHECKTYPESIZE\CMAKE_SIZEOF_UNSIGNED_SHORT.C
C:\PROGRAM FILES\CMAKE\SHARE\CMAKE-3.8\MODULES\TESTENDIANESS.C.IN
C:\USERS\ABRAIN\.CPPAN\STORAGE\OBJ\14\83\BAFC\GENERATE.CMAKE
C:\USERS\ABRAIN\.CPPAN\STORAGE\ETC\STATIC\GENERATE.CMAKE
C:\USERS\ABRAIN\.CPPAN\STORAGE\OBJ\14\83\BAFC\EXPORTS.CMAKE
C:\USERS\ABRAIN\.CPPAN\STORAGE\OBJ\D6\DE\C13D\GENERATE.CMAKE
C:\USERS\ABRAIN\.CPPAN\STORAGE\OBJ\D6\DE\C13D\EXPORTS.CMAKE
C:\USERS\ABRAIN\.CPPAN\STORAGE\EXP\D546A32F\PVT.CPPAN.DEMO.GIF-5.1.4.CMAKE
C:\USERS\ABRAIN\.CPPAN\STORAGE\OBJ\97\2A\155A\GENERATE.CMAKE
C:\USERS\ABRAIN\.CPPAN\STORAGE\OBJ\97\2A\155A\EXPORTS.CMAKE
C:\USERS\ABRAIN\.CPPAN\STORAGE\EXP\D546A32F\PVT.CPPAN.DEMO.JPEG-9.2.0.CMAKE
C:\USERS\ABRAIN\.CPPAN\STORAGE\OBJ\7A\DE\8A22\GENERATE.CMAKE
C:\USERS\ABRAIN\.CPPAN\STORAGE\OBJ\7A\DE\8A22\EXPORTS.CMAKE
C:\USERS\ABRAIN\.CPPAN\STORAGE\EXP\D546A32F\PVT.CPPAN.DEMO.OPENJPEG.OPENJP2-2.1.2.CMAKE
C:\USERS\ABRAIN\.CPPAN\STORAGE\OBJ\6A\36\D3A9\GENERATE.CMAKE
C:\USERS\ABRAIN\.CPPAN\STORAGE\OBJ\6A\36\D3A9\EXPORTS.CMAKE
C:\USERS\ABRAIN\.CPPAN\STORAGE\OBJ\4F\0F\185B\GENERATE.CMAKE
C:\USERS\ABRAIN\.CPPAN\STORAGE\OBJ\4F\0F\185B\EXPORTS.CMAKE
C:\USERS\ABRAIN\.CPPAN\STORAGE\EXP\D546A32F\PVT.CPPAN.DEMO.ZLIB-1.2.11.CMAKE
C:\USERS\ABRAIN\.CPPAN\STORAGE\EXP\D546A32F\PVT.CPPAN.DEMO.PNG-1.6.28.CMAKE
C:\USERS\ABRAIN\.CPPAN\STORAGE\OBJ\2F\16\8F89\GENERATE.CMAKE
C:\USERS\ABRAIN\.CPPAN\STORAGE\OBJ\2F\16\8F89\EXPORTS.CMAKE
C:\USERS\ABRAIN\.CPPAN\STORAGE\OBJ\95\15\A371\GENERATE.CMAKE
C:\USERS\ABRAIN\.CPPAN\STORAGE\OBJ\95\15\A371\EXPORTS.CMAKE
C:\USERS\ABRAIN\.CPPAN\STORAGE\OBJ\79\97\1D02\GENERATE.CMAKE
C:\USERS\ABRAIN\.CPPAN\STORAGE\OBJ\79\97\1D02\EXPORTS.CMAKE
C:\USERS\ABRAIN\.CPPAN\STORAGE\EXP\D546A32F\PVT.CPPAN.DEMO.MGK25.JBIG.AR-2.1.0.CMAKE
C:\USERS\ABRAIN\.CPPAN\STORAGE\EXP\D546A32F\PVT.CPPAN.DEMO.MGK25.JBIG.JBIG-2.1.0.CMAKE
C:\USERS\ABRAIN\.CPPAN\STORAGE\OBJ\E3\7D\E40C\GENERATE.CMAKE
C:\USERS\ABRAIN\.CPPAN\STORAGE\OBJ\E3\7D\E40C\EXPORTS.CMAKE
C:\USERS\ABRAIN\.CPPAN\STORAGE\EXP\D546A32F\PVT.CPPAN.DEMO.XZ_UTILS.LZMA-5.2.2.CMAKE
C:\USERS\ABRAIN\.CPPAN\STORAGE\EXP\D546A32F\PVT.CPPAN.DEMO.TIFF-4.0.7.CMAKE
C:\USERS\ABRAIN\.CPPAN\STORAGE\OBJ\CF\01\8747\GENERATE.CMAKE
C:\USERS\ABRAIN\.CPPAN\STORAGE\OBJ\CF\01\8747\EXPORTS.CMAKE
C:\USERS\ABRAIN\.CPPAN\STORAGE\EXP\D546A32F\PVT.CPPAN.DEMO.WEBP-0.6.0.CMAKE
C:\USERS\ABRAIN\.CPPAN\STORAGE\EXP\D546A32F\PVT.CPPAN.DEMO.DANBLOOMBERG.LEPTONICA-1.74.1.CMAKE
C:\USERS\ABRAIN\.CPPAN\STORAGE\OBJ\95\3F\1A71\GENERATE.CMAKE
C:\USERS\ABRAIN\.CPPAN\STORAGE\OBJ\95\3F\1A71\EXPORTS.CMAKE
C:\USERS\ABRAIN\.CPPAN\STORAGE\OBJ\32\84\6EF8\GENERATE.CMAKE
C:\USERS\ABRAIN\.CPPAN\STORAGE\OBJ\32\84\6EF8\EXPORTS.CMAKE
C:\USERS\ABRAIN\.CPPAN\STORAGE\OBJ\0D\B6\8038\GENERATE.CMAKE
C:\USERS\ABRAIN\.CPPAN\STORAGE\OBJ\0D\B6\8038\EXPORTS.CMAKE
C:\USERS\ABRAIN\.CPPAN\STORAGE\OBJ\D9\00\9B74\GENERATE.CMAKE
C:\USERS\ABRAIN\.CPPAN\STORAGE\OBJ\D9\00\9B74\EXPORTS.CMAKE
C:\USERS\ABRAIN\.CPPAN\STORAGE\EXP\D546A32F\PVT.CPPAN.DEMO.EXPAT-2.2.0.CMAKE
C:\USERS\ABRAIN\.CPPAN\STORAGE\OBJ\F7\CF\F2E8\GENERATE.CMAKE
C:\USERS\ABRAIN\.CPPAN\STORAGE\OBJ\F7\CF\F2E8\EXPORTS.CMAKE
C:\USERS\ABRAIN\.CPPAN\STORAGE\OBJ\12\6E\7377\GENERATE.CMAKE
C:\USERS\ABRAIN\.CPPAN\STORAGE\OBJ\12\6E\7377\EXPORTS.CMAKE
C:\USERS\ABRAIN\.CPPAN\STORAGE\EXP\D546A32F\PVT.CPPAN.DEMO.BZIP2-1.0.6.CMAKE
C:\USERS\ABRAIN\.CPPAN\STORAGE\EXP\D546A32F\PVT.CPPAN.DEMO.FREETYPE-2.7.1.CMAKE
C:\USERS\ABRAIN\.CPPAN\STORAGE\SRC\30\C9\44DE\INCLUDE.CMAKE
C:\USERS\ABRAIN\.CPPAN\STORAGE\EXP\D546A32F\PVT.CPPAN.DEMO.FREEDESKTOP.FONTCONFIG.FONTCONFIG-2.12.1.CMAKE
C:\USERS\ABRAIN\.CPPAN\STORAGE\OBJ\88\AB\E997\GENERATE.CMAKE
C:\USERS\ABRAIN\.CPPAN\STORAGE\OBJ\88\AB\E997\EXPORTS.CMAKE
C:\USERS\ABRAIN\.CPPAN\STORAGE\EXP\D546A32F\PVT.CPPAN.DEMO.FREEDESKTOP.PIXMAN-0.34.0.CMAKE
C:\USERS\ABRAIN\.CPPAN\STORAGE\EXP\D546A32F\PVT.CPPAN.DEMO.CAIROGRAPHICS.CAIRO-1.15.4.CMAKE
C:\USERS\ABRAIN\.CPPAN\STORAGE\OBJ\E5\76\9EDC\GENERATE.CMAKE
C:\USERS\ABRAIN\.CPPAN\STORAGE\OBJ\E5\76\9EDC\EXPORTS.CMAKE
C:\USERS\ABRAIN\.CPPAN\STORAGE\OBJ\73\1F\26AC\GENERATE.CMAKE
C:\USERS\ABRAIN\.CPPAN\STORAGE\OBJ\73\1F\26AC\EXPORTS.CMAKE
C:\USERS\ABRAIN\.CPPAN\STORAGE\OBJ\52\6B\4253\GENERATE.CMAKE
C:\USERS\ABRAIN\.CPPAN\STORAGE\OBJ\52\6B\4253\EXPORTS.CMAKE
C:\USERS\ABRAIN\.CPPAN\STORAGE\OBJ\BA\6B\63F4\GENERATE.CMAKE
C:\USERS\ABRAIN\.CPPAN\STORAGE\OBJ\BA\6B\63F4\EXPORTS.CMAKE
C:\USERS\ABRAIN\.CPPAN\STORAGE\OBJ\9F\04\341D\GENERATE.CMAKE
C:\USERS\ABRAIN\.CPPAN\STORAGE\OBJ\9F\04\341D\EXPORTS.CMAKE
C:\USERS\ABRAIN\.CPPAN\STORAGE\OBJ\8C\28\D0FB\GENERATE.CMAKE
C:\USERS\ABRAIN\.CPPAN\STORAGE\OBJ\8C\28\D0FB\EXPORTS.CMAKE
C:\USERS\ABRAIN\.CPPAN\STORAGE\EXP\D546A32F\PVT.CPPAN.DEMO.GNU.ICONV.LIBCHARSET-1.15.0.CMAKE
C:\USERS\ABRAIN\.CPPAN\STORAGE\EXP\D546A32F\PVT.CPPAN.DEMO.GNU.ICONV.LIBICONV-1.15.0.CMAKE
C:\USERS\ABRAIN\.CPPAN\STORAGE\EXP\D546A32F\PVT.CPPAN.DEMO.GNU.GETTEXT.INTL-0.19.8.CMAKE
C:\USERS\ABRAIN\.CPPAN\STORAGE\OBJ\81\48\8053\GENERATE.CMAKE
C:\USERS\ABRAIN\.CPPAN\STORAGE\OBJ\81\48\8053\EXPORTS.CMAKE
C:\USERS\ABRAIN\.CPPAN\STORAGE\EXP\D546A32F\PVT.CPPAN.DEMO.PCRE.PCRE-8.39.0.CMAKE
C:\USERS\ABRAIN\.CPPAN\STORAGE\EXP\D546A32F\PVT.CPPAN.DEMO.GNOME.GLIB.GLIB-2.50.3.CMAKE
C:\USERS\ABRAIN\.CPPAN\STORAGE\OBJ\B6\AC\8966\GENERATE.CMAKE
C:\USERS\ABRAIN\.CPPAN\STORAGE\OBJ\B6\AC\8966\EXPORTS.CMAKE
C:\USERS\ABRAIN\.CPPAN\STORAGE\EXP\D546A32F\PVT.CPPAN.DEMO.GRIGORIG.UCDN-MASTER.CMAKE
C:\USERS\ABRAIN\.CPPAN\STORAGE\OBJ\63\4E\75F8\GENERATE.CMAKE
C:\USERS\ABRAIN\.CPPAN\STORAGE\EXP\E05D0346\PVT.CPPAN.DEMO.RAGEL-6.9.0.CMAKE
C:\USERS\ABRAIN\.CPPAN\STORAGE\OBJ\5F\8C\D830\GENERATE.CMAKE
C:\USERS\ABRAIN\.CPPAN\STORAGE\OBJ\5F\8C\D830\EXPORTS.CMAKE
C:\USERS\ABRAIN\.CPPAN\STORAGE\OBJ\05\9D\4FA2\GENERATE.CMAKE
C:\USERS\ABRAIN\.CPPAN\STORAGE\OBJ\05\9D\4FA2\EXPORTS.CMAKE
C:\USERS\ABRAIN\.CPPAN\STORAGE\OBJ\F9\D0\DAE1\GENERATE.CMAKE
C:\USERS\ABRAIN\.CPPAN\STORAGE\OBJ\F9\D0\DAE1\EXPORTS.CMAKE
C:\USERS\ABRAIN\.CPPAN\STORAGE\OBJ\FA\3A\7CE8\GENERATE.CMAKE
C:\USERS\ABRAIN\.CPPAN\STORAGE\EXP\D546A32F\PVT.CPPAN.DEMO.UNICODE.ICU.STUB.ICUPKG-58.2.0.CMAKE
C:\USERS\ABRAIN\.CPPAN\STORAGE\OBJ\5F\6F\ECC4\GENERATE.CMAKE
C:\USERS\ABRAIN\.CPPAN\STORAGE\EXP\D546A32F\PVT.CPPAN.DEMO.UNICODE.ICU.STUB.PKGDATA-58.2.0.CMAKE
C:\USERS\ABRAIN\.CPPAN\STORAGE\EXP\D546A32F\PVT.CPPAN.DEMO.UNICODE.ICU.DATA-58.2.0.CMAKE
C:\USERS\ABRAIN\.CPPAN\STORAGE\EXP\D546A32F\PVT.CPPAN.DEMO.UNICODE.ICU.COMMON-58.2.0.CMAKE
C:\USERS\ABRAIN\.CPPAN\STORAGE\EXP\D546A32F\PVT.CPPAN.DEMO.UNICODE.ICU.I18N-58.2.0.CMAKE
C:\USERS\ABRAIN\.CPPAN\STORAGE\EXP\D546A32F\PVT.CPPAN.DEMO.BEHDAD.HARFBUZZ-1.4.3.CMAKE
C:\USERS\ABRAIN\.CPPAN\STORAGE\OBJ\9B\11\91E8\GENERATE.CMAKE
C:\USERS\ABRAIN\.CPPAN\STORAGE\OBJ\9B\11\91E8\EXPORTS.CMAKE
C:\USERS\ABRAIN\.CPPAN\STORAGE\OBJ\74\23\E881\GENERATE.CMAKE
C:\USERS\ABRAIN\.CPPAN\STORAGE\OBJ\74\23\E881\EXPORTS.CMAKE
C:\USERS\ABRAIN\.CPPAN\STORAGE\OBJ\EC\7D\2CB7\GENERATE.CMAKE
C:\USERS\ABRAIN\.CPPAN\STORAGE\OBJ\EC\7D\2CB7\EXPORTS.CMAKE
C:\USERS\ABRAIN\.CPPAN\STORAGE\EXP\D546A32F\PVT.CPPAN.DEMO.WELTLING.WINLIBS.LIBFFI-3.2.1.CMAKE
C:\USERS\ABRAIN\.CPPAN\STORAGE\EXP\D546A32F\PVT.CPPAN.DEMO.GNOME.GLIB.GOBJECT-2.50.3.CMAKE
C:\USERS\ABRAIN\.CPPAN\STORAGE\EXP\D546A32F\PVT.CPPAN.DEMO.GNOME.PANGO.PANGO-1.40.3.CMAKE
C:\USERS\ABRAIN\.CPPAN\STORAGE\EXP\D546A32F\PVT.CPPAN.DEMO.GNOME.PANGO.PANGOFT2-1.40.3.CMAKE
C:\USERS\ABRAIN\.CPPAN\STORAGE\EXP\D546A32F\PVT.CPPAN.DEMO.GNOME.PANGO.PANGOCAIRO-1.40.3.CMAKE
^C:\TESSERACT\TESS305\BUILD2\CMAKEFILES\A59CCE830E369FF0453D0F2FEDB259C9\CPPAN-D-C.RULE
