^C:\TESSERACT\TESS305\TRAINING\MERGENF.CPP|C:\TESSERACT\TESS305\TRAINING\MFTRAINING.CPP
C:\TESSERACT\TESS305\BUILD2\TRAINING\MFTRAINING.DIR\RELEASE\MERGENF.OBJ
C:\TESSERACT\TESS305\BUILD2\TRAINING\MFTRAINING.DIR\RELEASE\MFTRAINING.OBJ
